^C:\USERS\USER\DOCUMENTS\MAGSHIMIM\YEAR 2\SEMESTER A\ADVANCED PROGRAMMING\LESSON 5\SOLUTION\PAINTER\SRC\ARROW.CPP
/c /ZI /nologo /W3 /WX- /diagnostics:classic /sdl /Od /D _MBCS /Gm /EHsc /RTC1 /MDd /GS /fp:precise /permissive- /Zc:wchar_t /Zc:forScope /Zc:inline /Fo"X64\DEBUG\\" /Fd"X64\DEBUG\VC141.PDB" /Gd /TP C:\USERS\USER\DOCUMENTS\MAGSHIMIM\YEAR 2\SEMESTER A\ADVANCED PROGRAMMING\LESSON 5\SOLUTION\PAINTER\SRC\ARROW.CPP
^C:\USERS\USER\DOCUMENTS\MAGSHIMIM\YEAR 2\SEMESTER A\ADVANCED PROGRAMMING\LESSON 5\SOLUTION\PAINTER\SRC\CIRCLE.CPP
/c /ZI /nologo /W3 /WX- /diagnostics:classic /sdl /Od /D _MBCS /Gm /EHsc /RTC1 /MDd /GS /fp:precise /permissive- /Zc:wchar_t /Zc:forScope /Zc:inline /Fo"X64\DEBUG\\" /Fd"X64\DEBUG\VC141.PDB" /Gd /TP C:\USERS\USER\DOCUMENTS\MAGSHIMIM\YEAR 2\SEMESTER A\ADVANCED PROGRAMMING\LESSON 5\SOLUTION\PAINTER\SRC\CIRCLE.CPP
^C:\USERS\USER\DOCUMENTS\MAGSHIMIM\YEAR 2\SEMESTER A\ADVANCED PROGRAMMING\LESSON 5\SOLUTION\PAINTER\SRC\MAIN.CPP
/c /ZI /nologo /W3 /WX- /diagnostics:classic /sdl /Od /D _MBCS /Gm /EHsc /RTC1 /MDd /GS /fp:precise /permissive- /Zc:wchar_t /Zc:forScope /Zc:inline /Fo"X64\DEBUG\\" /Fd"X64\DEBUG\VC141.PDB" /Gd /TP C:\USERS\USER\DOCUMENTS\MAGSHIMIM\YEAR 2\SEMESTER A\ADVANCED PROGRAMMING\LESSON 5\SOLUTION\PAINTER\SRC\MAIN.CPP
^C:\USERS\USER\DOCUMENTS\MAGSHIMIM\YEAR 2\SEMESTER A\ADVANCED PROGRAMMING\LESSON 5\SOLUTION\PAINTER\SRC\MENU.CPP
/c /ZI /nologo /W3 /WX- /diagnostics:classic /sdl /Od /D _MBCS /Gm /EHsc /RTC1 /MDd /GS /fp:precise /permissive- /Zc:wchar_t /Zc:forScope /Zc:inline /Fo"X64\DEBUG\\" /Fd"X64\DEBUG\VC141.PDB" /Gd /TP C:\USERS\USER\DOCUMENTS\MAGSHIMIM\YEAR 2\SEMESTER A\ADVANCED PROGRAMMING\LESSON 5\SOLUTION\PAINTER\SRC\MENU.CPP
^C:\USERS\USER\DOCUMENTS\MAGSHIMIM\YEAR 2\SEMESTER A\ADVANCED PROGRAMMING\LESSON 5\SOLUTION\PAINTER\SRC\POINT.CPP
/c /ZI /nologo /W3 /WX- /diagnostics:classic /sdl /Od /D _MBCS /Gm /EHsc /RTC1 /MDd /GS /fp:precise /permissive- /Zc:wchar_t /Zc:forScope /Zc:inline /Fo"X64\DEBUG\\" /Fd"X64\DEBUG\VC141.PDB" /Gd /TP C:\USERS\USER\DOCUMENTS\MAGSHIMIM\YEAR 2\SEMESTER A\ADVANCED PROGRAMMING\LESSON 5\SOLUTION\PAINTER\SRC\POINT.CPP
^C:\USERS\USER\DOCUMENTS\MAGSHIMIM\YEAR 2\SEMESTER A\ADVANCED PROGRAMMING\LESSON 5\SOLUTION\PAINTER\SRC\POLYGON.CPP
/c /ZI /nologo /W3 /WX- /diagnostics:classic /sdl /Od /D _MBCS /Gm /EHsc /RTC1 /MDd /GS /fp:precise /permissive- /Zc:wchar_t /Zc:forScope /Zc:inline /Fo"X64\DEBUG\\" /Fd"X64\DEBUG\VC141.PDB" /Gd /TP C:\USERS\USER\DOCUMENTS\MAGSHIMIM\YEAR 2\SEMESTER A\ADVANCED PROGRAMMING\LESSON 5\SOLUTION\PAINTER\SRC\POLYGON.CPP
^C:\USERS\USER\DOCUMENTS\MAGSHIMIM\YEAR 2\SEMESTER A\ADVANCED PROGRAMMING\LESSON 5\SOLUTION\PAINTER\SRC\RECTANGLE.CPP
/c /ZI /nologo /W3 /WX- /diagnostics:classic /sdl /Od /D _MBCS /Gm /EHsc /RTC1 /MDd /GS /fp:precise /permissive- /Zc:wchar_t /Zc:forScope /Zc:inline /Fo"X64\DEBUG\\" /Fd"X64\DEBUG\VC141.PDB" /Gd /TP C:\USERS\USER\DOCUMENTS\MAGSHIMIM\YEAR 2\SEMESTER A\ADVANCED PROGRAMMING\LESSON 5\SOLUTION\PAINTER\SRC\RECTANGLE.CPP
^C:\USERS\USER\DOCUMENTS\MAGSHIMIM\YEAR 2\SEMESTER A\ADVANCED PROGRAMMING\LESSON 5\SOLUTION\PAINTER\SRC\SHAPE.CPP
/c /ZI /nologo /W3 /WX- /diagnostics:classic /sdl /Od /D _MBCS /Gm /EHsc /RTC1 /MDd /GS /fp:precise /permissive- /Zc:wchar_t /Zc:forScope /Zc:inline /Fo"X64\DEBUG\\" /Fd"X64\DEBUG\VC141.PDB" /Gd /TP C:\USERS\USER\DOCUMENTS\MAGSHIMIM\YEAR 2\SEMESTER A\ADVANCED PROGRAMMING\LESSON 5\SOLUTION\PAINTER\SRC\SHAPE.CPP
^C:\USERS\USER\DOCUMENTS\MAGSHIMIM\YEAR 2\SEMESTER A\ADVANCED PROGRAMMING\LESSON 5\SOLUTION\PAINTER\SRC\TRIANGLE.CPP
/c /ZI /nologo /W3 /WX- /diagnostics:classic /sdl /Od /D _MBCS /Gm /EHsc /RTC1 /MDd /GS /fp:precise /permissive- /Zc:wchar_t /Zc:forScope /Zc:inline /Fo"X64\DEBUG\\" /Fd"X64\DEBUG\VC141.PDB" /Gd /TP C:\USERS\USER\DOCUMENTS\MAGSHIMIM\YEAR 2\SEMESTER A\ADVANCED PROGRAMMING\LESSON 5\SOLUTION\PAINTER\SRC\TRIANGLE.CPP
